…
``` r
pp_test <- lapply(ts_list, pp.test)

lapply(pp_test, "[[", "p.value") %>%
  as.data.frame() %>%
  pivot_longer(everything(), names_to = c("state"), values_to = "p.value") %>%
  mutate(p.value = round(p.value, 3))
```

    ## # A tibble: 60 × 2
    ##    state p.value
    ##    <chr>   <dbl>
    ##  1 ND       0.01
    ##  2 WA       0.01
    ##  3 MD       0.01
    ##  4 VT       0.01
    ##  5 ME       0.01
    ##  6 NE       0.01
    ##  7 DE       0.01
    ##  8 WI       0.01
    ##  9 GU       0.01
    ## 10 MI       0.01
    ## # … with 50 more rows
…
